simulation/qsim/Proyecto10.msim.vcd
$comment
	File created using the following command:
		vcd file Proyecto10.msim.vcd -direction
$end
$date
	Fri Apr 23 09:24:11 2021
$end
$version
	ModelSim Version 10.5b
$end
$timescale
	1ps
$end

$scope module proyecto10_vhd_vec_tst $end
$var wire 1 ! clk $end
$var wire 1 " Digito [3] $end
$var wire 1 # Digito [2] $end
$var wire 1 $ Digito [1] $end
$var wire 1 % Digito [0] $end
$var wire 1 & enter $end
$var wire 1 ' est [3] $end
$var wire 1 ( est [2] $end
$var wire 1 ) est [1] $end
$var wire 1 * est [0] $end
$var wire 1 + fin $end
$var wire 1 , Q0 [3] $end
$var wire 1 - Q0 [2] $end
$var wire 1 . Q0 [1] $end
$var wire 1 / Q0 [0] $end
$var wire 1 0 Q1 [3] $end
$var wire 1 1 Q1 [2] $end
$var wire 1 2 Q1 [1] $end
$var wire 1 3 Q1 [0] $end
$var wire 1 4 Q2 [3] $end
$var wire 1 5 Q2 [2] $end
$var wire 1 6 Q2 [1] $end
$var wire 1 7 Q2 [0] $end
$var wire 1 8 resetn $end
$var wire 1 9 start $end
$var wire 1 : Valido $end

$scope module i1 $end
$var wire 1 ; gnd $end
$var wire 1 < vcc $end
$var wire 1 = unknown $end
$var wire 1 > devoe $end
$var wire 1 ? devclrn $end
$var wire 1 @ devpor $end
$var wire 1 A ww_devoe $end
$var wire 1 B ww_devclrn $end
$var wire 1 C ww_devpor $end
$var wire 1 D ww_fin $end
$var wire 1 E ww_resetn $end
$var wire 1 F ww_clk $end
$var wire 1 G ww_start $end
$var wire 1 H ww_enter $end
$var wire 1 I ww_Valido $end
$var wire 1 J ww_Q0 [3] $end
$var wire 1 K ww_Q0 [2] $end
$var wire 1 L ww_Q0 [1] $end
$var wire 1 M ww_Q0 [0] $end
$var wire 1 N ww_Digito [3] $end
$var wire 1 O ww_Digito [2] $end
$var wire 1 P ww_Digito [1] $end
$var wire 1 Q ww_Digito [0] $end
$var wire 1 R ww_Q1 [3] $end
$var wire 1 S ww_Q1 [2] $end
$var wire 1 T ww_Q1 [1] $end
$var wire 1 U ww_Q1 [0] $end
$var wire 1 V ww_Q2 [3] $end
$var wire 1 W ww_Q2 [2] $end
$var wire 1 X ww_Q2 [1] $end
$var wire 1 Y ww_Q2 [0] $end
$var wire 1 Z ww_est [3] $end
$var wire 1 [ ww_est [2] $end
$var wire 1 \ ww_est [1] $end
$var wire 1 ] ww_est [0] $end
$var wire 1 ^ \~QUARTUS_CREATED_GND~I_combout\ $end
$var wire 1 _ \clk~input_o\ $end
$var wire 1 ` \clk~inputCLKENA0_outclk\ $end
$var wire 1 a \start~input_o\ $end
$var wire 1 b \enter~input_o\ $end
$var wire 1 c \inst|Selector0~0_combout\ $end
$var wire 1 d \resetn~input_o\ $end
$var wire 1 e \inst|y.s0~q\ $end
$var wire 1 f \inst|y~25_combout\ $end
$var wire 1 g \inst|y.s1~q\ $end
$var wire 1 h \inst|Selector1~0_combout\ $end
$var wire 1 i \inst|y.s2~q\ $end
$var wire 1 j \inst|y~24_combout\ $end
$var wire 1 k \inst|y.s3~q\ $end
$var wire 1 l \inst|y~21_combout\ $end
$var wire 1 m \inst|y.s4~q\ $end
$var wire 1 n \inst|Selector2~0_combout\ $end
$var wire 1 o \inst|y.s5~q\ $end
$var wire 1 p \inst|y~23_combout\ $end
$var wire 1 q \inst|y.s6~q\ $end
$var wire 1 r \inst|y~22_combout\ $end
$var wire 1 s \inst|y.s7~q\ $end
$var wire 1 t \inst|Selector3~0_combout\ $end
$var wire 1 u \inst|y.s8~q\ $end
$var wire 1 v \inst|y~19_combout\ $end
$var wire 1 w \inst|y.s9~q\ $end
$var wire 1 x \inst|y~20_combout\ $end
$var wire 1 y \inst|y.s10~q\ $end
$var wire 1 z \inst|y.s11~q\ $end
$var wire 1 { \inst|Selector4~0_combout\ $end
$var wire 1 | \inst|y.s12~q\ $end
$var wire 1 } \inst|y~18_combout\ $end
$var wire 1 ~ \inst|y.s13~q\ $end
$var wire 1 !! \inst|WideOr6~0_combout\ $end
$var wire 1 "! \Digito[1]~input_o\ $end
$var wire 1 #! \Digito[2]~input_o\ $end
$var wire 1 $! \inst3|q[2]~feeder_combout\ $end
$var wire 1 %! \Digito[0]~input_o\ $end
$var wire 1 &! \Digito[3]~input_o\ $end
$var wire 1 '! \inst10|Despl~0_combout\ $end
$var wire 1 (! \inst1|q[1]~feeder_combout\ $end
$var wire 1 )! \inst2|q[2]~feeder_combout\ $end
$var wire 1 *! \inst8|Despl~2_combout\ $end
$var wire 1 +! \inst8|Despl~1_combout\ $end
$var wire 1 ,! \inst8|Despl~0_combout\ $end
$var wire 1 -! \inst18|S[0]~0_combout\ $end
$var wire 1 .! \inst10|Despl~1_combout\ $end
$var wire 1 /! \inst8|Despl~3_combout\ $end
$var wire 1 0! \inst18|S[0]~1_combout\ $end
$var wire 1 1! \inst10|Despl~3_combout\ $end
$var wire 1 2! \inst10|Despl~2_combout\ $end
$var wire 1 3! \inst18|S[0]~2_combout\ $end
$var wire 1 4! \inst|WideOr5~combout\ $end
$var wire 1 5! \inst|WideOr6~combout\ $end
$var wire 1 6! \inst|WideOr7~combout\ $end
$var wire 1 7! \inst|WideOr8~0_combout\ $end
$var wire 1 8! \inst|WideOr8~combout\ $end
$var wire 1 9! \inst2|q\ [3] $end
$var wire 1 :! \inst2|q\ [2] $end
$var wire 1 ;! \inst2|q\ [1] $end
$var wire 1 <! \inst2|q\ [0] $end
$var wire 1 =! \inst10|Despl\ [3] $end
$var wire 1 >! \inst10|Despl\ [2] $end
$var wire 1 ?! \inst10|Despl\ [1] $end
$var wire 1 @! \inst10|Despl\ [0] $end
$var wire 1 A! \inst1|q\ [3] $end
$var wire 1 B! \inst1|q\ [2] $end
$var wire 1 C! \inst1|q\ [1] $end
$var wire 1 D! \inst1|q\ [0] $end
$var wire 1 E! \inst8|Despl\ [3] $end
$var wire 1 F! \inst8|Despl\ [2] $end
$var wire 1 G! \inst8|Despl\ [1] $end
$var wire 1 H! \inst8|Despl\ [0] $end
$var wire 1 I! \inst18|S\ [0] $end
$var wire 1 J! \inst3|q\ [3] $end
$var wire 1 K! \inst3|q\ [2] $end
$var wire 1 L! \inst3|q\ [1] $end
$var wire 1 M! \inst3|q\ [0] $end
$var wire 1 N! \inst|ALT_INV_WideOr8~combout\ $end
$var wire 1 O! \inst|ALT_INV_WideOr8~0_combout\ $end
$var wire 1 P! \inst|ALT_INV_y.s0~q\ $end
$var wire 1 Q! \inst|ALT_INV_y.s2~q\ $end
$var wire 1 R! \inst|ALT_INV_y.s3~q\ $end
$var wire 1 S! \inst|ALT_INV_y.s6~q\ $end
$var wire 1 T! \inst|ALT_INV_y.s5~q\ $end
$var wire 1 U! \inst|ALT_INV_y.s7~q\ $end
$var wire 1 V! \inst|ALT_INV_y.s4~q\ $end
$var wire 1 W! \inst|ALT_INV_y.s10~q\ $end
$var wire 1 X! \inst|ALT_INV_y.s8~q\ $end
$var wire 1 Y! \inst|ALT_INV_y.s11~q\ $end
$var wire 1 Z! \inst|ALT_INV_y.s9~q\ $end
$var wire 1 [! \inst3|ALT_INV_q\ [3] $end
$var wire 1 \! \inst3|ALT_INV_q\ [2] $end
$var wire 1 ]! \inst3|ALT_INV_q\ [1] $end
$var wire 1 ^! \inst3|ALT_INV_q\ [0] $end
$var wire 1 _! \inst18|ALT_INV_S[0]~2_combout\ $end
$var wire 1 `! \inst10|ALT_INV_Despl\ [3] $end
$var wire 1 a! \inst10|ALT_INV_Despl\ [2] $end
$var wire 1 b! \inst10|ALT_INV_Despl\ [1] $end
$var wire 1 c! \inst10|ALT_INV_Despl\ [0] $end
$var wire 1 d! \inst2|ALT_INV_q\ [3] $end
$var wire 1 e! \inst2|ALT_INV_q\ [2] $end
$var wire 1 f! \inst2|ALT_INV_q\ [1] $end
$var wire 1 g! \inst2|ALT_INV_q\ [0] $end
$var wire 1 h! \inst18|ALT_INV_S[0]~1_combout\ $end
$var wire 1 i! \inst8|ALT_INV_Despl\ [3] $end
$var wire 1 j! \inst8|ALT_INV_Despl\ [2] $end
$var wire 1 k! \inst8|ALT_INV_Despl\ [1] $end
$var wire 1 l! \inst8|ALT_INV_Despl\ [0] $end
$var wire 1 m! \inst1|ALT_INV_q\ [3] $end
$var wire 1 n! \inst1|ALT_INV_q\ [2] $end
$var wire 1 o! \inst1|ALT_INV_q\ [1] $end
$var wire 1 p! \inst1|ALT_INV_q\ [0] $end
$var wire 1 q! \inst18|ALT_INV_S[0]~0_combout\ $end
$var wire 1 r! \inst|ALT_INV_WideOr6~0_combout\ $end
$var wire 1 s! \inst|ALT_INV_y.s13~q\ $end
$var wire 1 t! \inst|ALT_INV_y.s12~q\ $end
$var wire 1 u! \ALT_INV_enter~input_o\ $end
$var wire 1 v! \ALT_INV_Digito[2]~input_o\ $end
$var wire 1 w! \ALT_INV_Digito[1]~input_o\ $end
$var wire 1 x! \ALT_INV_start~input_o\ $end
$var wire 1 y! \inst|ALT_INV_y.s1~q\ $end
$upscope $end
$upscope $end
$enddefinitions $end
#0
$dumpvars
1!
0&
0+
08
09
0:
0;
1<
x=
1>
1?
1@
1A
1B
1C
0D
0E
1F
0G
0H
0I
x^
1_
1`
0a
0b
0c
0d
0e
0f
0g
0h
0i
0j
0k
0l
0m
0n
0o
0p
0q
0r
0s
0t
0u
0v
0w
0x
0y
0z
0{
0|
0}
0~
1!!
0"!
0#!
0$!
0%!
0&!
0'!
0(!
0)!
0*!
0+!
1,!
1-!
1.!
0/!
10!
01!
02!
13!
04!
05!
06!
07!
18!
0N!
1O!
1P!
1Q!
1R!
1S!
1T!
1U!
1V!
1W!
1X!
1Y!
1Z!
0_!
0h!
0q!
0r!
1s!
1t!
1u!
1v!
1w!
1x!
1y!
0"
0#
0$
0%
0J
0K
0L
0M
0N
0O
0P
0Q
0R
0S
0T
0U
0V
0W
0X
0Y
0Z
0[
0\
0]
09!
0:!
0;!
0<!
0=!
0>!
0?!
0@!
0A!
0B!
0C!
0D!
0E!
0F!
0G!
0H!
0I!
0J!
0K!
0L!
0M!
1[!
1\!
1]!
1^!
1`!
1a!
1b!
1c!
1d!
1e!
1f!
1g!
1i!
1j!
1k!
1l!
1m!
1n!
1o!
1p!
0'
0(
0)
0*
0,
0-
0.
0/
00
01
02
03
04
05
06
07
$end
#5000
0!
0F
0_
0`
#10000
1!
1F
1_
1`
#15000
0!
0F
0_
0`
#20000
1!
18
1F
1E
1d
1_
1`
#25000
0!
0F
0_
0`
#30000
1!
1F
1_
1`
#35000
0!
0F
0_
0`
#40000
1!
19
1F
1G
1a
1_
1`
0x!
1c
1f
#45000
0!
1%
0F
1Q
1%!
0_
0`
#50000
1!
1F
1_
1`
1e
1g
0y!
0P!
17!
0O!
08!
1N!
1]
1*
#55000
0!
0F
0_
0`
#60000
1!
09
1F
0G
0a
1_
1`
1x!
0f
1h
#65000
0!
0F
0_
0`
#70000
1!
1F
1_
1`
0g
1i
0Q!
1y!
16!
07!
1O!
18!
0N!
1\
1)
0]
0*
#75000
0!
0F
0_
0`
#80000
1!
1F
1_
1`
#85000
0!
0F
0_
0`
#90000
1!
1&
1F
1H
1b
1_
1`
0u!
0h
1j
#95000
0!
0F
0_
0`
#100000
1!
1F
1_
1`
0i
1k
0R!
1Q!
17!
0O!
08!
1N!
1]
1*
#105000
0!
0F
0_
0`
#110000
1!
0&
1F
0H
0b
1_
1`
1u!
0j
1l
#115000
0!
0F
0_
0`
#120000
1!
1F
1_
1`
0k
1m
0V!
1R!
0l
06!
1n
15!
07!
1O!
18!
0N!
1[
0\
0)
1(
0]
0*
#125000
0!
0F
0_
0`
#130000
1!
1F
1_
1`
0m
1o
1D!
0p!
0T!
1V!
17!
0-!
1q!
0O!
1M
08!
1/
1N!
1]
1*
#135000
0!
1"
0F
1N
1&!
0_
0`
#140000
1!
1F
1_
1`
#145000
0!
0F
0_
0`
#150000
1!
1F
1_
1`
#155000
0!
0F
0_
0`
#160000
1!
1&
1F
1H
1b
1_
1`
0u!
0n
1p
#165000
0!
0F
0_
0`
#170000
1!
1F
1_
1`
0o
1q
0S!
1T!
16!
07!
1O!
18!
0N!
1\
1)
0]
0*
#175000
0!
0F
0_
0`
#180000
1!
0&
0"
0%
1$
1F
0H
0Q
1P
0N
0&!
1"!
0%!
0b
1_
1`
1u!
0w!
1(!
0p
1r
#185000
0!
0F
0_
0`
#190000
1!
1F
1_
1`
0q
1s
0U!
1S!
0r
17!
1t
0O!
08!
1N!
1]
1*
#195000
0!
0F
0_
0`
#200000
1!
1F
1_
1`
0s
1u
1;!
0f!
0X!
1U!
05!
06!
14!
18!
0N!
1T
12
1Z
0\
0[
0]
0)
0(
1'
0*
#205000
0!
0F
0_
0`
#210000
1!
1F
1_
1`
#215000
0!
0F
0_
0`
#220000
1!
1F
1_
1`
#225000
0!
0F
0_
0`
#230000
1!
1&
1F
1H
1b
1_
1`
0u!
0t
1v
#235000
0!
0F
0_
0`
#240000
1!
1F
1_
1`
0u
1w
0Z!
1X!
08!
1N!
1]
1*
#245000
0!
0F
0_
0`
#250000
1!
0&
0$
1#
1F
0H
0P
1O
1#!
0"!
0b
1_
1`
1u!
1w!
0v!
1$!
1)!
0(!
0v
1x
#255000
0!
0F
0_
0`
#260000
1!
1F
1_
1`
0w
1y
0W!
1Z!
0x
16!
18!
0N!
1\
0]
1)
0*
#265000
0!
0F
0_
0`
#270000
1!
1F
1_
1`
0y
1z
1K!
0\!
0Y!
1W!
08!
1{
1'!
0.!
1N!
1W
15
1]
1*
#275000
0!
0F
0_
0`
#280000
1!
1F
1_
1`
0z
1|
1?!
1H!
0l!
0b!
0t!
1Y!
06!
0!!
15!
18!
1-!
0q!
0N!
1r!
1I!
1[
0\
1D
0]
0)
1(
1+
0*
1I
1:
#285000
0!
0F
0_
0`
#290000
1!
19
1F
1G
1a
1_
1`
0x!
0{
1}
#295000
0!
0F
0_
0`
#300000
1!
09
1F
0G
0a
1_
1`
1x!
1{
0}
0|
1~
0s!
1t!
0{
08!
0c
1N!
1]
1*
#305000
0!
0F
0_
0`
#310000
1!
1$
1%
1F
1Q
1P
1"!
1%!
1_
1`
0w!
1(!
0e
0~
1s!
1P!
0K!
0?!
0;!
0D!
0H!
07!
1!!
04!
05!
1l!
1p!
1f!
1b!
1\!
0r!
1O!
0'!
1.!
18!
0I!
0M
0T
0W
0N!
0[
0Z
0/
02
05
0D
0(
0'
0+
0I
0]
0:
0*
#315000
0!
0F
0_
0`
#320000
1!
19
1F
1G
1a
1_
1`
0x!
1c
1f
#325000
0!
0F
0_
0`
#330000
1!
1F
1_
1`
1e
1g
0y!
0P!
17!
0O!
08!
1N!
1]
1*
#335000
0!
0F
0_
0`
#340000
1!
09
0%
0#
1F
0G
0Q
0O
0#!
0%!
0a
1_
1`
1x!
1v!
0$!
0)!
0f
1h
#345000
0!
0F
0_
0`
#350000
1!
1F
1_
1`
0g
1i
0Q!
1y!
16!
07!
1O!
18!
0N!
1\
1)
0]
0*
#355000
0!
0F
0_
0`
#360000
1!
1F
1_
1`
#365000
0!
0F
0_
0`
#370000
1!
1&
1F
1H
1b
1_
1`
0u!
0h
1j
#375000
0!
0F
0_
0`
#380000
1!
1F
1_
1`
0i
1k
0R!
1Q!
17!
0O!
08!
1N!
1]
1*
#385000
0!
0F
0_
0`
#390000
1!
0&
1F
0H
0b
1_
1`
1u!
0j
1l
#395000
0!
0F
0_
0`
#400000
1!
1F
1_
1`
0k
1m
0V!
1R!
0l
06!
1n
15!
07!
1O!
18!
0N!
1[
0\
0)
1(
0]
0*
#405000
0!
0F
0_
0`
#410000
1!
1F
1_
1`
0m
1o
1C!
0o!
0T!
1V!
17!
0-!
1q!
0O!
1L
08!
1.
1N!
1]
1*
#415000
0!
0F
0_
0`
#420000
1!
1%
1"
1F
1Q
1N
1&!
1%!
1_
1`
#425000
0!
0F
0_
0`
#430000
1!
1F
1_
1`
#435000
0!
0F
0_
0`
#440000
1!
1&
1F
1H
1b
1_
1`
0u!
0n
1p
#445000
0!
0F
0_
0`
#450000
1!
0%
0"
1#
0$
1F
0Q
0P
1O
0N
0&!
1#!
0"!
0%!
1_
1`
1w!
0v!
1$!
1)!
0(!
0o
1q
0S!
1T!
16!
07!
1O!
18!
0N!
1\
1)
0]
0*
#455000
0!
0F
0_
0`
#460000
1!
0&
1F
0H
0b
1_
1`
1u!
0p
1r
#465000
0!
0F
0_
0`
#470000
1!
1F
1_
1`
0q
1s
0U!
1S!
0r
17!
1t
0O!
08!
1N!
1]
1*
#475000
0!
0F
0_
0`
#480000
1!
1F
1_
1`
0s
1u
1:!
0e!
0X!
1U!
05!
06!
14!
18!
1+!
0,!
03!
1_!
0N!
1S
11
1Z
0\
0[
0]
0)
0(
1'
0*
#485000
0!
0F
0_
0`
#490000
1!
1F
1_
1`
#495000
0!
1%
0F
1Q
1%!
0_
0`
#500000
1!
1F
1_
1`
#505000
0!
0F
0_
0`
#510000
1!
1&
1F
1H
1b
1_
1`
0u!
0t
1v
#515000
0!
0F
0_
0`
#520000
1!
1F
1_
1`
0u
1w
0Z!
1X!
08!
1N!
1]
1*
#525000
0!
0F
0_
0`
#530000
1!
0&
1F
0H
0b
1_
1`
1u!
0v
1x
#535000
0!
0F
0_
0`
#540000
1!
1F
1_
1`
0w
1y
0W!
1Z!
0x
16!
18!
0N!
1\
0]
1)
0*
#545000
0!
0F
0_
0`
#550000
1!
1F
1_
1`
0y
1z
1K!
1M!
0^!
0\!
0Y!
1W!
08!
1{
1'!
0.!
12!
1N!
1Y
1W
17
15
1]
1*
#555000
0!
0F
0_
0`
#560000
1!
0%
1F
0Q
0%!
1_
1`
0z
1|
1?!
1G!
1>!
0a!
0k!
0b!
0t!
1Y!
06!
0!!
15!
18!
1-!
13!
0_!
0q!
0N!
1r!
1[
0\
1D
0]
0)
1(
1+
0*
#565000
0!
0F
0_
0`
#570000
1!
1F
1_
1`
#575000
0!
0F
0_
0`
#580000
1!
19
1F
1G
1a
1_
1`
0x!
0{
1}
#585000
0!
1%
1"
1$
0F
1Q
1P
1N
1&!
1"!
1%!
0_
0`
0w!
1(!
#590000
1!
1F
1_
1`
0|
1~
0s!
1t!
08!
1N!
1]
1*
#595000
0!
0F
0_
0`
#600000
1!
09
1F
0G
0a
1_
1`
1x!
0c
0}
#605000
0!
0F
0_
0`
#610000
1!
1F
1_
1`
0e
0~
1s!
1P!
0K!
0M!
0?!
0C!
0:!
0G!
0>!
07!
1!!
04!
05!
1a!
1k!
1e!
1o!
1b!
1^!
1\!
0r!
1O!
0'!
1.!
02!
1I!
0+!
1,!
18!
0I!
0S
0L
0Y
0W
0N!
0[
0Z
01
0.
07
05
0D
0(
0'
1I
0+
0I
1:
0]
0:
0*
#615000
0!
0F
0_
0`
#620000
1!
1F
1_
1`
#625000
0!
0F
0_
0`
#630000
1!
0%
0#
1F
0Q
0O
0#!
0%!
1_
1`
1v!
0$!
0)!
#635000
0!
0F
0_
0`
#640000
1!
1F
1_
1`
#645000
0!
0F
0_
0`
#650000
1!
1F
1_
1`
#655000
0!
0F
0_
0`
#660000
1!
1F
1_
1`
#665000
0!
0F
0_
0`
#670000
1!
1F
1_
1`
#675000
0!
1%
0"
0F
1Q
0N
0&!
1%!
0_
0`
#680000
1!
1F
1_
1`
#685000
0!
0F
0_
0`
#690000
1!
1F
1_
1`
#695000
0!
0F
0_
0`
#700000
1!
1F
1_
1`
#705000
0!
0F
0_
0`
#710000
1!
1F
1_
1`
#715000
0!
0F
0_
0`
#720000
1!
1"
0$
1F
0P
1N
1&!
0"!
1_
1`
1w!
0(!
#725000
0!
0F
0_
0`
#730000
1!
1F
1_
1`
#735000
0!
0F
0_
0`
#740000
1!
1F
1_
1`
#745000
0!
0F
0_
0`
#750000
1!
1F
1_
1`
#755000
0!
0F
0_
0`
#760000
1!
1F
1_
1`
#765000
0!
0F
0_
0`
#770000
1!
1F
1_
1`
#775000
0!
0F
0_
0`
#780000
1!
1F
1_
1`
#785000
0!
0F
0_
0`
#790000
1!
1F
1_
1`
#795000
0!
0F
0_
0`
#800000
1!
1F
1_
1`
#805000
0!
0F
0_
0`
#810000
1!
0"
1#
1F
1O
0N
0&!
1#!
1_
1`
0v!
1$!
1)!
#815000
0!
0F
0_
0`
#820000
1!
1F
1_
1`
#825000
0!
0F
0_
0`
#830000
1!
1F
1_
1`
#835000
0!
0F
0_
0`
#840000
1!
1F
1_
1`
#845000
0!
0F
0_
0`
#850000
1!
1F
1_
1`
#855000
0!
0#
0%
0F
0Q
0O
0#!
0%!
0_
0`
1v!
0$!
0)!
#860000
1!
1F
1_
1`
#865000
0!
0F
0_
0`
#870000
1!
1F
1_
1`
#875000
0!
0F
0_
0`
#880000
1!
1F
1_
1`
#885000
0!
0F
0_
0`
#890000
1!
1F
1_
1`
#895000
0!
0F
0_
0`
#900000
1!
1#
1$
1F
1P
1O
1#!
1"!
1_
1`
0w!
0v!
1$!
1)!
1(!
#905000
0!
0F
0_
0`
#910000
1!
1F
1_
1`
#915000
0!
0F
0_
0`
#920000
1!
1F
1_
1`
#925000
0!
0F
0_
0`
#930000
1!
1F
1_
1`
#935000
0!
0F
0_
0`
#940000
1!
1F
1_
1`
#945000
0!
0#
0$
1%
0F
1Q
0P
0O
0#!
0"!
1%!
0_
0`
1w!
1v!
0$!
0)!
0(!
#950000
1!
1F
1_
1`
#955000
0!
0F
0_
0`
#960000
1!
1F
1_
1`
#965000
0!
0F
0_
0`
#970000
1!
1F
1_
1`
#975000
0!
0F
0_
0`
#980000
1!
1F
1_
1`
#985000
0!
0F
0_
0`
#990000
1!
1$
1F
1P
1"!
1_
1`
0w!
1(!
#995000
0!
0F
0_
0`
